[
    {
        "name": "Adecor"
    },
    {
        "name": "Anonang"
    },
    {
        "name": "Aumbay"
    },
    {
        "name": "Aundanao"
    },
    {
        "name": "Balet"
    },
    {
        "name": "Bandera"
    },
    {
        "name": "Caliclic (Dangca-an)"
    },
    {
        "name": "Camudmud"
    },
    {
        "name": "Catagman"
    },
    {
        "name": "Cawag"
    },
    {
        "name": "Cogon"
    },
    {
        "name": "Cogon (Talicod)"
    },
    {
        "name": "Dadatan"
    },
    {
        "name": "Del Monte"
    },
    {
        "name": "Guilon"
    },
    {
        "name": "Kanaan"
    },
    {
        "name": "Kinawitnon"
    },
    {
        "name": "Libertad"
    },
    {
        "name": "Libuak"
    },
    {
        "name": "Licup"
    },
    {
        "name": "Limao"
    },
    {
        "name": "Linosutan"
    },
    {
        "name": "Mambago-A"
    },
    {
        "name": "Mambago-B"
    },
    {
        "name": "Miranda (Poblacion)"
    },
    {
        "name": "Moncado (Poblacion)"
    },
    {
        "name": "Pangubatan"
    },
    {
        "name": "Peñaplata (Poblacion)"
    },
    {
        "name": "Poblacion (Kaputian)"
    },
    {
        "name": "San Agustin"
    },
    {
        "name": "San Antonio"
    },
    {
        "name": "San Isidro (Babak)"
    },
    {
        "name": "San Isidro (Kaputian)"
    },
    {
        "name": "San Jose (San Lapuz)"
    },
    {
        "name": "San Miguel (Magamomo)"
    },
    {
        "name": "San Remigio"
    },
    {
        "name": "Santa Cruz (Talicod II)"
    },
    {
        "name": "Santo Niño"
    },
    {
        "name": "Sion (Zion)"
    },
    {
        "name": "Tagbaobo"
    },
    {
        "name": "Tagbay"
    },
    {
        "name": "Tagbitan-ag"
    },
    {
        "name": "Tagdaliao"
    },
    {
        "name": "Tagpopongan"
    },
    {
        "name": "Tambo"
    },
    {
        "name": "Toril"
    },
    {
        "name": "Villarica"
    }
]
